\relax 
\providecommand\hyper@newdestlabel[2]{}
\providecommand\HyperFirstAtBeginDocument{\AtBeginDocument}
\HyperFirstAtBeginDocument{\ifx\hyper@anchor\@undefined
\global\let\oldcontentsline\contentsline
\gdef\contentsline#1#2#3#4{\oldcontentsline{#1}{#2}{#3}}
\global\let\oldnewlabel\newlabel
\gdef\newlabel#1#2{\newlabelxx{#1}#2}
\gdef\newlabelxx#1#2#3#4#5#6{\oldnewlabel{#1}{{#2}{#3}}}
\AtEndDocument{\ifx\hyper@anchor\@undefined
\let\contentsline\oldcontentsline
\let\newlabel\oldnewlabel
\fi}
\fi}
\global\let\hyper@last\relax 
\gdef\HyperFirstAtBeginDocument#1{#1}
\providecommand\HyField@AuxAddToFields[1]{}
\providecommand\HyField@AuxAddToCoFields[2]{}
\citation{Fletcher2010}
\citation{Dornfeld2017}
\citation{Riede2011}
\citation{Roberts1975}
\citation{Sanders2001}
\newlabel{FirstPage}{{}{1}{}{Doc-Start}{}}
\citation{Cummings1986a}
\citation{Sullivan2008}
\citation{Chanaud1965}
\citation{akhmetov2009vortex}
\newlabel{eq:viscous}{{1}{2}{}{Doc-Start}{}}
\newlabel{eq:u_dot}{{2}{2}{}{equation.0.2}{}}
\newlabel{eq:stream_modes}{{3}{3}{}{equation.0.2}{}}
\newlabel{eq:acoustic_oscillator}{{4}{3}{}{equation.0.4}{}}
\citation{Arneodo2009}
\citation{Auvray2012a}
\bibdata{../mdornfe1.bib}
\bibcite{Fletcher2010}{{1}{2010}{{Fletcher}}{{}}}
\@writefile{lof}{\contentsline {figure}{\numberline {1}{\ignorespaces Log scale heat map of the modulus squared of the Fourier transform of the driving velocity $|U_0|^2$ plotted against the subglottal pressure. It can be seen that oscillations begin around $p=710$ Pa, and for $p=1500$ Pa the fundamental frequency is approximately that seen in rat alarm calls.}}{4}{figure.1}}
\newlabel{fig:specgram}{{1}{4}{Log scale heat map of the modulus squared of the Fourier transform of the driving velocity $|U_0|^2$ plotted against the subglottal pressure. It can be seen that oscillations begin around $p=710$ Pa, and for $p=1500$ Pa the fundamental frequency is approximately that seen in rat alarm calls}{figure.1}{}}
\@writefile{lof}{\contentsline {figure}{\numberline {2}{\ignorespaces The value of $u_0$ at the fixed point that system approaches when it is integrated from rest. Blue dots indicate the value of $u_0$ at the fixed point. Also shown are a minimum, mean, and max of the oscillations after the initial transients has died out. It can be seen that in its oscillating state the system does not orbit the unstable fixed point but rather some point nearby.}}{4}{figure.2}}
\newlabel{fig:fixed_point}{{2}{4}{The value of $u_0$ at the fixed point that system approaches when it is integrated from rest. Blue dots indicate the value of $u_0$ at the fixed point. Also shown are a minimum, mean, and max of the oscillations after the initial transients has died out. It can be seen that in its oscillating state the system does not orbit the unstable fixed point but rather some point nearby}{figure.2}{}}
\@writefile{lof}{\contentsline {figure}{\numberline {3}{\ignorespaces The behavior of the dominant eigenvalue of the Jacobian evaluated at the fixed point, which the system approaches, when it is integrated from rest. Blue dots indicate pressures for which the real part of the least stable eigenvalue is less than $0$. Red dots indicate pressures for which the real part of the least stable eigenvalue is greater than $0$.}}{4}{figure.3}}
\newlabel{fig:stability}{{3}{4}{The behavior of the dominant eigenvalue of the Jacobian evaluated at the fixed point, which the system approaches, when it is integrated from rest. Blue dots indicate pressures for which the real part of the least stable eigenvalue is less than $0$. Red dots indicate pressures for which the real part of the least stable eigenvalue is greater than $0$}{figure.3}{}}
\bibcite{Dornfeld2017}{{2}{2017}{{Dornfeld}}{{}}}
\bibcite{Riede2011}{{3}{2011}{{Riede}}{{}}}
\bibcite{Roberts1975}{{4}{1975}{{Roberts}}{{}}}
\bibcite{Sanders2001}{{5}{2001}{{Sanders et~al.}}{{Sanders, Weisz, Yan, Fung, and Amirali}}}
\bibcite{Cummings1986a}{{6}{1986}{{Cummings and Chang}}{{}}}
\bibcite{Sullivan2008}{{7}{2008}{{SULLIVAN et~al.}}{{SULLIVAN, NIEMELA, HERSHBERGER, BOLSTER, and DONNELLY}}}
\bibcite{Chanaud1965}{{8}{1965}{{Chanaud and Powell}}{{}}}
\bibcite{akhmetov2009vortex}{{9}{2009}{{Akhmetov}}{{}}}
\bibcite{Arneodo2009}{{10}{2009}{{Arneodo and Mindlin}}{{}}}
\bibcite{Auvray2012a}{{11}{2012}{{Auvray et~al.}}{{Auvray, Fabre, and Lagrée}}}
\bibcite{pierce1981acoustics}{{12}{1981}{{Pierce et~al.}}{{}}}
\bibcite{Henwood2002}{{13}{2002}{{Henwood}}{{}}}
\global \chardef \firstnote@num13\relax 
\@writefile{toc}{\contentsline {section}{\numberline {}References}{5}{section*.1}}
\newlabel{LastBibItem}{{13}{5}{}{section*.1}{}}
\@writefile{toc}{\appendix }
\@writefile{toc}{\contentsline {section}{\numberline {}Appendix}{5}{section*.2}}
\@writefile{toc}{\contentsline {subsection}{\numberline {}The Upper Vocal Tract Flow}{5}{section*.3}}
\newlabel{eq:wave_appendix}{{A.1}{5}{}{equation.Alph0.5}{}}
\@writefile{lof}{\contentsline {figure}{\numberline {A.1}{\ignorespaces A schematic model of the rodent vocal tract. Subglottal pressure $p$ drives flow through the vocal folds, which have radius $r_f$. The flow $u_0$, emerging from the vocal folds drives the acoustic flow in the upper vocal tract, which is described by the velocity potential $\phi (x,t)$. The acoustic flow is damped by radiation at the mouth, which is controlled by the mouth radius $r_m$. In addition the jet detaching from the walls of the vocal folds leads to the formation of vortex rings described by the stream function $\psi $, which leads to an additional pressure $p_{src}$ on the acoustic flow. The acoustic flow provides feedback pressure $-\genfrac  {}{}{}{}{\partial \phi (0,t)}{\partial t}$, which opposes $u_0$.}}{5}{figure.4}}
\newlabel{fig:vocal_tract}{{A.1}{5}{A schematic model of the rodent vocal tract. Subglottal pressure $p$ drives flow through the vocal folds, which have radius $r_f$. The flow $u_0$, emerging from the vocal folds drives the acoustic flow in the upper vocal tract, which is described by the velocity potential $\phi (x,t)$. The acoustic flow is damped by radiation at the mouth, which is controlled by the mouth radius $r_m$. In addition the jet detaching from the walls of the vocal folds leads to the formation of vortex rings described by the stream function $\psi $, which leads to an additional pressure $p_{src}$ on the acoustic flow. The acoustic flow provides feedback pressure $-\frac {\partial \phi (0,t)}{\partial t}$, which opposes $u_0$}{figure.4}{}}
\citation{pierce1981acoustics}
\newlabel{eq:driven_wave}{{A.2}{6}{}{equation.Alph0.6}{}}
\newlabel{eq:coupled_equation}{{A.3}{6}{}{equation.Alph0.7}{}}
\newlabel{eq:spatial_problem}{{A.4}{6}{}{equation.Alph0.8}{}}
\newlabel{eq:impedance}{{A.5}{6}{}{equation.Alph0.9}{}}
\newlabel{eq:spatial_basis}{{A.6}{6}{}{equation.Alph0.10}{}}
\newlabel{eq:omega_alpha}{{A.7}{6}{}{equation.Alph0.11}{}}
\@writefile{lof}{\contentsline {figure}{\numberline {A.2}{\ignorespaces Solutions of Eq. \ref  {eq:omega_alpha} for $r_m=4 \times 10^{-6}$ ($1$ mm in dimensional units). The purple and green curves show the zero isoclines for the real and imaginary parts of Eq. \ref  {eq:omega_alpha}. The intersections of these curves are the eigenfrequencies of the half open pipe. The fsolve function, which is a part of the scipy.optimize package was used to solve this system. The blue circles show initial guesses supplied to fsolve. The red circles show the output of fsolve. These are the eigenfrequencies of the system.}}{6}{figure.5}}
\newlabel{fig:eigenfrequencies}{{A.2}{6}{Solutions of Eq. \ref {eq:omega_alpha} for $r_m=4 \times 10^{-6}$ ($1$ mm in dimensional units). The purple and green curves show the zero isoclines for the real and imaginary parts of Eq. \ref {eq:omega_alpha}. The intersections of these curves are the eigenfrequencies of the half open pipe. The fsolve function, which is a part of the scipy.optimize package was used to solve this system. The blue circles show initial guesses supplied to fsolve. The red circles show the output of fsolve. These are the eigenfrequencies of the system}{figure.5}{}}
\newlabel{eq:coupled_equation2}{{A.8}{6}{}{equation.Alph0.12}{}}
\newlabel{eq:matrix_eq1}{{A.9}{6}{}{equation.Alph0.13}{}}
\citation{Henwood2002}
\newlabel{eq:matrix_eq2}{{A.10}{7}{}{equation.Alph0.14}{}}
\newlabel{eq:matrix_eq3}{{A.11}{7}{}{equation.Alph0.15}{}}
\newlabel{eq:matrix_eq4}{{A.12}{7}{}{equation.Alph0.16}{}}
\newlabel{eq:matrix_eq4}{{A.13}{7}{}{equation.Alph0.17}{}}
\newlabel{eq:hysteretic_damping_appendix}{{A.14}{7}{}{equation.Alph0.17}{}}
\newlabel{eq:ab_constants}{{A.15}{7}{}{equation.Alph0.19}{}}
\newlabel{eq:viscous_approximation_appendix}{{A.16}{7}{}{equation.Alph0.19}{}}
\newlabel{eq:beta}{{A.17}{7}{}{equation.Alph0.21}{}}
\@writefile{toc}{\contentsline {subsection}{\numberline {}The Flow Through the Vocal Folds}{7}{section*.4}}
\newlabel{eq:energy1_appendix}{{A.18}{7}{}{equation.Alph0.22}{}}
\newlabel{eq:energy2}{{A.19}{7}{}{equation.Alph0.23}{}}
\citation{Cummings1986a}
\citation{Sullivan2008}
\citation{Chanaud1965}
\citation{akhmetov2009vortex}
\newlabel{eq:energy3}{{A.20}{8}{}{equation.Alph0.23}{}}
\newlabel{eq:energy4}{{A.21}{8}{}{equation.Alph0.23}{}}
\newlabel{eq:energy5}{{A.21}{8}{}{equation.Alph0.23}{}}
\newlabel{eq:energy7}{{A.21}{8}{}{equation.Alph0.27}{}}
\newlabel{eq:u_dot_appendix}{{A.22}{8}{}{equation.Alph0.28}{}}
\newlabel{eq:mu_gamma}{{A.23}{8}{}{equation.Alph0.29}{}}
\@writefile{toc}{\contentsline {subsection}{\numberline {}The Unsteady Pressure Source Due to Vortex Ring Formation}{8}{section*.5}}
\newlabel{eq:F_omega}{{A.24}{8}{}{equation.Alph0.30}{}}
\newlabel{eq:p_src1_appendix}{{A.25}{9}{}{equation.Alph0.31}{}}
\newlabel{eq:stokes}{{A.26}{9}{}{equation.Alph0.32}{}}
\newlabel{eq:p_src_appendix}{{A.27}{9}{}{equation.Alph0.33}{}}
\newlabel{eq:euler_appendix}{{A.28}{9}{}{equation.Alph0.34}{}}
\newlabel{eq:euler_bcs_appendix}{{A.29}{9}{}{equation.Alph0.35}{}}
\newlabel{eq:velocity_profile}{{A.30}{9}{}{equation.Alph0.36}{}}
\newlabel{eq:psi_substitution_appendix}{{A.31}{9}{}{equation.Alph0.37}{}}
\newlabel{eq:axi_euler2}{{A.32}{9}{}{equation.Alph0.38}{}}
\newlabel{eq:G_eig}{{A.34}{9}{}{equation.Alph0.40}{}}
\newlabel{eq:G_solutions}{{A.36}{9}{}{equation.Alph0.42}{}}
\newlabel{eq:orthogonality}{{A.37}{10}{}{equation.Alph0.43}{}}
\newlabel{eq:euler3}{{A.38}{10}{}{equation.Alph0.44}{}}
\newlabel{eq:psi_expansion_appendix}{{A.39}{10}{}{equation.Alph0.45}{}}
\newlabel{eq:stream_modes_appendix}{{A.41}{10}{}{equation.Alph0.47}{}}
\newlabel{eq:eta_spatial_constants}{{A.42}{10}{}{equation.Alph0.48}{}}
\@writefile{toc}{\contentsline {subsection}{\numberline {}The Vortical Pressure Source and Relation to the Acoustic Flow}{10}{section*.6}}
\newlabel{eq:p_src_constants}{{A.44}{10}{}{equation.Alph0.50}{}}
\newlabel{eq:p_src_appendix2}{{A.47}{11}{}{equation.Alph0.50}{}}
\newlabel{eq:c_constants}{{A.48}{11}{}{equation.Alph0.54}{}}
\newlabel{eq:dot_p_src}{{A.49}{11}{}{equation.Alph0.54}{}}
\newlabel{eq:u_ddot1}{{A.50}{11}{}{equation.Alph0.56}{}}
\newlabel{eq:u_ddot3}{{A.51}{11}{}{equation.Alph0.56}{}}
\newlabel{eq:Fb_appendix}{{A.53}{11}{}{equation.Alph0.59}{}}
\newlabel{eq:acoustic_oscillator_appendix}{{A.54}{11}{}{equation.Alph0.60}{}}
\newlabel{eq:acoustic_tensors}{{A.55}{11}{}{equation.Alph0.61}{}}
\@writefile{toc}{\contentsline {subsection}{\numberline {}Analysis and Discussion}{11}{section*.7}}
\citation{Riede2011}
\bibstyle{apsrev}
\newlabel{LastPage}{{}{12}{}{page.12}{}}
\@writefile{lof}{\contentsline {figure}{\numberline {A.3}{\ignorespaces Feedback diagram of the different variables describing the flow in the rodent vocal tract. Time dependent variables of the model are shown in boxes. Solid lines between the boxes indicate excitatory mechanisms, and dotted lines indicate inhibitory ones. The three input parameters of the model are shown inside the circles. These parameters are subglottal pressure $p$, vocal fold radius $r_F$, and mouth radius $r_m$. The subglottal pressure drives the velocity of the vocal fold flow $u_0$. The vocal fold flow then directly drives the vortical flow $\boldsymbol  {\eta }$ and the acoustic flow $\textbf  {q}$. The vocal fold radius modulates the strength of $u_0$ and $\boldsymbol  {\eta }$. The evolution of $u_0$ and $\boldsymbol  {\eta }$ determine the strength of $p_{src}$. The pressure $p_{src}$ then drives the acoustic flow $\textbf  {q}$, which is modulated by the mouth radius, which controls the strength of radiation. The velocity $u_0$ is inhibited by $\textbf  {q}$ and $p_{src}$ through pressure feedback.}}{12}{figure.6}}
\newlabel{fig:feedback}{{A.3}{12}{Feedback diagram of the different variables describing the flow in the rodent vocal tract. Time dependent variables of the model are shown in boxes. Solid lines between the boxes indicate excitatory mechanisms, and dotted lines indicate inhibitory ones. The three input parameters of the model are shown inside the circles. These parameters are subglottal pressure $p$, vocal fold radius $r_F$, and mouth radius $r_m$. The subglottal pressure drives the velocity of the vocal fold flow $u_0$. The vocal fold flow then directly drives the vortical flow $\boldsymbol {\eta }$ and the acoustic flow $\textbf {q}$. The vocal fold radius modulates the strength of $u_0$ and $\boldsymbol {\eta }$. The evolution of $u_0$ and $\boldsymbol {\eta }$ determine the strength of $p_{src}$. The pressure $p_{src}$ then drives the acoustic flow $\textbf {q}$, which is modulated by the mouth radius, which controls the strength of radiation. The velocity $u_0$ is inhibited by $\textbf {q}$ and $p_{src}$ through pressure feedback}{figure.6}{}}
\@writefile{lof}{\contentsline {figure}{\numberline {A.4}{\ignorespaces The jet velocity entering the pharynx $u_0$ for different values of the subglottal pressure $p$. Somewhere around $710$ Pa the system transitions from approaching a fixed point to approaching a steady oscillatory state. In this calculation the vocal tract length is $L=4$ mm, the pharyngeal radius is $r_0=1.5$ mm, the tracheal radius is $r_t=1.5$ mm, the mouth radius is $r_{m}=.45$ mm, and the vocal fold radius is $r_f=1.1$ mm. }}{12}{figure.7}}
\newlabel{fig:pressure_sweep_u0}{{A.4}{12}{The jet velocity entering the pharynx $u_0$ for different values of the subglottal pressure $p$. Somewhere around $710$ Pa the system transitions from approaching a fixed point to approaching a steady oscillatory state. In this calculation the vocal tract length is $L=4$ mm, the pharyngeal radius is $r_0=1.5$ mm, the tracheal radius is $r_t=1.5$ mm, the mouth radius is $r_{m}=.45$ mm, and the vocal fold radius is $r_f=1.1$ mm}{figure.7}{}}
\@writefile{lof}{\contentsline {figure}{\numberline {A.5}{\ignorespaces The eigenvalue spectrum of the Jacobian evaluated at the fixed point for $p=1.5$ Pa. The system is driven by eigenvalues with the largest real part.}}{12}{figure.8}}
\newlabel{fig:ev_spectrum}{{A.5}{12}{The eigenvalue spectrum of the Jacobian evaluated at the fixed point for $p=1.5$ Pa. The system is driven by eigenvalues with the largest real part}{figure.8}{}}
